[
  {
    "serialNumber": "abc123",
    "registrationDate": "1970-01-01T00:00:00.000Z",
    "sharedKey": "secretkey1",
    "recentRegistrationDate": "2021-12-19T19:03:07.968Z",
    "firmwareVersion": "0.0.1"
  },
  {
    "serialNumber": "abc124",
    "registrationDate": "1970-01-01T00:00:00.000Z",
    "recentRegistrationDate": "2021-12-19T19:03:07.968Z",
    "sharedKey": "secretkey2",
    "firmwareVersion": "0.0.5"
  },
  {
    "serialNumber": "abc125",
    "registrationDate": "1970-01-01T00:00:00.000Z",
    "recentRegistrationDate": "2021-12-19T19:03:07.968Z",
    "sharedKey": "secretkey4",
    "firmwareVersion": "0.0.4"
  },
  {
    "serialNumber": "abc126",
    "registrationDate": "1970-01-01T00:00:00.000Z",
    "recentRegistrationDate": "2021-12-19T19:03:07.968Z",
    "sharedKey": "secretkey5",
    "firmwareVersion": "0.0.3"
  },
  {
    "serialNumber": "abc127",
    "registrationDate": "1970-01-01T00:00:00.000Z",
    "recentRegistrationDate": "2021-12-19T19:03:07.968Z",
    "sharedKey": "secretkey6",
    "firmwareVersion": "0.0.2"
  }
]
